Konsumprisindeksen - KPI
…
Rader er horisontale observasjoner i en datatabell

Vi nsker n  trekke ut, eller filtrere p de radene som inneholder konsumprisindeksen. Dette oppnr vi med kode ved  filtrerer p totalindeksen p statistikkvariabel der den er lik (==) Konsumprisindeks (2015=100). Vi kaller det nye datasettet kpi.

kpi <- 
  tabell %>%
  filter(statistikkvariabel=="Konsumprisindeks (2015=100)") %>% 
  as_tibble()

kpi

# A tibble: 513 x 4
   konsumgruppe mned   statistikkvariabel          value
   <chr>        <chr>   <chr>                       <dbl>
 1 Totalindeks  1979M01 Konsumprisindeks (2015=100)  25.3
 2 Totalindeks  1979M02 Konsumprisindeks (2015=100)  25.4
 3 Totalindeks  1979M03 Konsumprisindeks (2015=100)  25.5
 4 Totalindeks  1979M04 Konsumprisindeks (2015=100)  25.6
 5 Totalindeks  1979M05 Konsumprisindeks (2015=100)  25.7
 6 Totalindeks  1979M06 Konsumprisindeks (2015=100)  25.8
 7 Totalindeks  1979M07 Konsumprisindeks (2015=100)  26  
 8 Totalindeks  1979M08 Konsumprisindeks (2015=100)  26  
 9 Totalindeks  1979M09 Konsumprisindeks (2015=100)  26.1
10 Totalindeks  1979M10 Konsumprisindeks (2015=100)  26.3
#  with 503 more rows
…
The following object is masked from 'package:base':

    date

kpi <-
  kpi %>%
  separate(mned, into=c("r", "mned"), sep="M") %>% 
  mutate(dato=ymd(paste(r, mned, "1"))) %>% 
  select(dato, konsumgruppe, statistikkvariabel, value)

kpi

# A tibble: 513 x 4
   dato       konsumgruppe statistikkvariabel          value
   <date>     <chr>        <chr>                       <dbl>
 1 1979-01-01 Totalindeks  Konsumprisindeks (2015=100)  25.3
 2 1979-02-01 Totalindeks  Konsumprisindeks (2015=100)  25.4
 3 1979-03-01 Totalindeks  Konsumprisindeks (2015=100)  25.5
 4 1979-04-01 Totalindeks  Konsumprisindeks (2015=100)  25.6
 5 1979-05-01 Totalindeks  Konsumprisindeks (2015=100)  25.7
 6 1979-06-01 Totalindeks  Konsumprisindeks (2015=100)  25.8
 7 1979-07-01 Totalindeks  Konsumprisindeks (2015=100)  26  
 8 1979-08-01 Totalindeks  Konsumprisindeks (2015=100)  26  
 9 1979-09-01 Totalindeks  Konsumprisindeks (2015=100)  26.1
10 1979-10-01 Totalindeks  Konsumprisindeks (2015=100)  26.3
#  with 503 more rows
…
