Case 4: Global Handel
…
 Conflicts  tidyverse_conflicts() 
x dplyr::filter() masks stats::filter()
x dplyr::lag()    masks stats::lag()

Import

Vi gjr et sk p nkkelordet imports.

imports <- WDIsearch('imports') %>% as_tibble()
imports

# A tibble: 117 x 2
   indicator        name                                                      
   <chr>            <chr>                                                     
 1 1600000          1600000:BALANCE OF EXPORTS AND IMPORTS                    
 2 AG.IMP.CREL.MT   Cereal imports (metric tons)                              
 3 BM.AG.FRST.CD    Forest products imports (FAO, current US$)                
 4 BM.AG.HZ.PEST.CD Hazardous pesticides imports (FAO, current US$)           
 5 BM.AG.PEST.CD    Pesticides imports (FAO, current US$)                     
 6 BM.FOD.AGRI.CD   Food imports excluding fish (FAO, current US$)            
 7 BM.GSR.AGRI.CD   Total agricultural imports (FAO, current US$)             
 8 BM.GSR.CMCP.ZS   Communications, computer, etc. (% of service imports, BoP)
 9 BM.GSR.COMM.CD   Communications services, imports (BoP, current US$)       
10 BM.GSR.FINS.CD   Financial services, imports (BoP, current US$)            
#  with 107 more rows
…
Oppgave 1

Beregn prosentvis endring i import fra ett r til det neste. Mellom hvilke r var det strst kning/nedgang?

Eksport

Vi gjr deretter et sk p eksport.

exports <- WDIsearch('exports') %>% as_tibble()
exports

# A tibble: 150 x 2
   indicator         name                                             
   <chr>             <chr>                                            
 1 1600000           1600000:BALANCE OF EXPORTS AND IMPORTS           
 2 BM.AG.AGR.TRAC.CD Agricultural tractors, exports (FAO, current US$)
 3 BM.AG.AGR.TRAC.NO Agricultural tractors, exports                   
 4 BM.AG.CREL.CD     Cereal exports (FAO, current US$)                
 5 BM.AG.CREL.MT     Cereal exports quantity (FAO, tonnes)            
 6 BX.AG.FRST.CD     Forest products exports (FAO, current US$)       
 7 BX.AG.HZ.PEST.CD  Hazardous pesticides exports (FAO, current US$)  
 8 BX.AG.PEST.CD     Pesticides exports (FAO, current US$)            
 9 BX.FOD.AGRI.CD    Food exports excluding fish (FAO, current US$)   
10 BX.GSR.AGRI.CD    Total agricultural exports (FAO, current US$)    
#  with 140 more rows
…
